%YAML 1.1
%TAG !u! tag:unity3d.com,2011:
--- !u!319 &31900000
AvatarMask:
  m_ObjectHideFlags: 0
  m_CorrespondingSourceObject: {fileID: 0}
  m_PrefabInstance: {fileID: 0}
  m_PrefabAsset: {fileID: 0}
  m_Name: UpperBody
  m_Mask: 00000000010000000100000000000000000000000100000001000000010000000100000000000000000000000100000001000000
  m_Elements:
  - m_Path: 
    m_Weight: 1
  - m_Path: Ch50
    m_Weight: 1
  - m_Path: mixamorig1:Hips
    m_Weight: 1
  - m_Path: mixamorig1:Hips/mixamorig1:LeftUpLeg
    m_Weight: 1
  - m_Path: mixamorig1:Hips/mixamorig1:LeftUpLeg/mixamorig1:LeftLeg
    m_Weight: 1
  - m_Path: mixamorig1:Hips/mixamorig1:LeftUpLeg/mixamorig1:LeftLeg/mixamorig1:LeftFoot
    m_Weight: 1
  - m_Path: mixamorig1:Hips/mixamorig1:LeftUpLeg/mixamorig1:LeftLeg/mixamorig1:LeftFoot/mixamorig1:LeftToeBase
    m_Weight: 1
  - m_Path: mixamorig1:Hips/mixamorig1:LeftUpLeg/mixamorig1:LeftLeg/mixamorig1:LeftFoot/mixamorig1:LeftToeBase/mixamorig1:LeftToe_End
    m_Weight: 1
  - m_Path: mixamorig1:Hips/mixamorig1:RightUpLeg
    m_Weight: 1
  - m_Path: mixamorig1:Hips/mixamorig1:RightUpLeg/mixamorig1:RightLeg
    m_Weight: 1
  - m_Path: mixamorig1:Hips/mixamorig1:RightUpLeg/mixamorig1:RightLeg/mixamorig1:RightFoot
    m_Weight: 1
  - m_Path: mixamorig1:Hips/mixamorig1:RightUpLeg/mixamorig1:RightLeg/mixamorig1:RightFoot/mixamorig1:RightToeBase
    m_Weight: 1
  - m_Path: mixamorig1:Hips/mixamorig1:RightUpLeg/mixamorig1:RightLeg/mixamorig1:RightFoot/mixamorig1:RightToeBase/mixamorig1:RightToe_End
    m_Weight: 1
  - m_Path: mixamorig1:Hips/mixamorig1:Spine
    m_Weight: 1
  - m_Path: mixamorig1:Hips/mixamorig1:Spine/mixamorig1:Spine1
    m_Weight: 1
  - m_Path: mixamorig1:Hips/mixamorig1:Spine/mixamorig1:Spine1/mixamorig1:Spine2
    m_Weight: 1
  - m_Path: mixamorig1:Hips/mixamorig1:Spine/mixamorig1:Spine1/mixamorig1:Spine2/mixamorig1:LeftShoulder
    m_Weight: 1
  - m_Path: mixamorig1:Hips/mixamorig1:Spine/mixamorig1:Spine1/mixamorig1:Spine2/mixamorig1:LeftShoulder/mixamorig1:LeftArm
    m_Weight: 1
  - m_Path: mixamorig1:Hips/mixamorig1:Spine/mixamorig1:Spine1/mixamorig1:Spine2/mixamorig1:LeftShoulder/mixamorig1:LeftArm/mixamorig1:LeftForeArm
    m_Weight: 1
  - m_Path: mixamorig1:Hips/mixamorig1:Spine/mixamorig1:Spine1/mixamorig1:Spine2/mixamorig1:LeftShoulder/mixamorig1:LeftArm/mixamorig1:LeftForeArm/mixamorig1:LeftHand
    m_Weight: 1
  - m_Path: mixamorig1:Hips/mixamorig1:Spine/mixamorig1:Spine1/mixamorig1:Spine2/mixamorig1:LeftShoulder/mixamorig1:LeftArm/mixamorig1:LeftForeArm/mixamorig1:LeftHand/mixamorig1:LeftHandIndex1
    m_Weight: 1
  - m_Path: mixamorig1:Hips/mixamorig1:Spine/mixamorig1:Spine1/mixamorig1:Spine2/mixamorig1:LeftShoulder/mixamorig1:LeftArm/mixamorig1:LeftForeArm/mixamorig1:LeftHand/mixamorig1:LeftHandIndex1/mixamorig1:LeftHandIndex2
    m_Weight: 1
  - m_Path: mixamorig1:Hips/mixamorig1:Spine/mixamorig1:Spine1/mixamorig1:Spine2/mixamorig1:LeftShoulder/mixamorig1:LeftArm/mixamorig1:LeftForeArm/mixamorig1:LeftHand/mixamorig1:LeftHandIndex1/mixamorig1:LeftHandIndex2/mixamorig1:LeftHandIndex3
    m_Weight: 1
  - m_Path: mixamorig1:Hips/mixamorig1:Spine/mixamorig1:Spine1/mixamorig1:Spine2/mixamorig1:LeftShoulder/mixamorig1:LeftArm/mixamorig1:LeftForeArm/mixamorig1:LeftHand/mixamorig1:LeftHandIndex1/mixamorig1:LeftHandIndex2/mixamorig1:LeftHandIndex3/mixamorig1:LeftHandIndex4
    m_Weight: 1
  - m_Path: mixamorig1:Hips/mixamorig1:Spine/mixamorig1:Spine1/mixamorig1:Spine2/mixamorig1:LeftShoulder/mixamorig1:LeftArm/mixamorig1:LeftForeArm/mixamorig1:LeftHand/mixamorig1:LeftHandMiddle1
    m_Weight: 1
  - m_Path: mixamorig1:Hips/mixamorig1:Spine/mixamorig1:Spine1/mixamorig1:Spine2/mixamorig1:LeftShoulder/mixamorig1:LeftArm/mixamorig1:LeftForeArm/mixamorig1:LeftHand/mixamorig1:LeftHandMiddle1/mixamorig1:LeftHandMiddle2
    m_Weight: 1
  - m_Path: mixamorig1:Hips/mixamorig1:Spine/mixamorig1:Spine1/mixamorig1:Spine2/mixamorig1:LeftShoulder/mixamorig1:LeftArm/mixamorig1:LeftForeArm/mixamorig1:LeftHand/mixamorig1:LeftHandMiddle1/mixamorig1:LeftHandMiddle2/mixamorig1:LeftHandMiddle3
    m_Weight: 1
  - m_Path: mixamorig1:Hips/mixamorig1:Spine/mixamorig1:Spine1/mixamorig1:Spine2/mixamorig1:LeftShoulder/mixamorig1:LeftArm/mixamorig1:LeftForeArm/mixamorig1:LeftHand/mixamorig1:LeftHandMiddle1/mixamorig1:LeftHandMiddle2/mixamorig1:LeftHandMiddle3/mixamorig1:LeftHandMiddle4
    m_Weight: 1
  - m_Path: mixamorig1:Hips/mixamorig1:Spine/mixamorig1:Spine1/mixamorig1:Spine2/mixamorig1:LeftShoulder/mixamorig1:LeftArm/mixamorig1:LeftForeArm/mixamorig1:LeftHand/mixamorig1:LeftHandThumb1
    m_Weight: 1
  - m_Path: mixamorig1:Hips/mixamorig1:Spine/mixamorig1:Spine1/mixamorig1:Spine2/mixamorig1:LeftShoulder/mixamorig1:LeftArm/mixamorig1:LeftForeArm/mixamorig1:LeftHand/mixamorig1:LeftHandThumb1/mixamorig1:LeftHandThumb2
    m_Weight: 1
  - m_Path: mixamorig1:Hips/mixamorig1:Spine/mixamorig1:Spine1/mixamorig1:Spine2/mixamorig1:LeftShoulder/mixamorig1:LeftArm/mixamorig1:LeftForeArm/mixamorig1:LeftHand/mixamorig1:LeftHandThumb1/mixamorig1:LeftHandThumb2/mixamorig1:LeftHandThumb3
    m_Weight: 1
  - m_Path: mixamorig1:Hips/mixamorig1:Spine/mixamorig1:Spine1/mixamorig1:Spine2/mixamorig1:LeftShoulder/mixamorig1:LeftArm/mixamorig1:LeftForeArm/mixamorig1:LeftHand/mixamorig1:LeftHandThumb1/mixamorig1:LeftHandThumb2/mixamorig1:LeftHandThumb3/mixamorig1:LeftHandThumb4
    m_Weight: 1
  - m_Path: mixamorig1:Hips/mixamorig1:Spine/mixamorig1:Spine1/mixamorig1:Spine2/mixamorig1:Neck
    m_Weight: 1
  - m_Path: mixamorig1:Hips/mixamorig1:Spine/mixamorig1:Spine1/mixamorig1:Spine2/mixamorig1:Neck/mixamorig1:Head
    m_Weight: 1
  - m_Path: mixamorig1:Hips/mixamorig1:Spine/mixamorig1:Spine1/mixamorig1:Spine2/mixamorig1:Neck/mixamorig1:Head/mixamorig1:HeadTop_End
    m_Weight: 1
  - m_Path: mixamorig1:Hips/mixamorig1:Spine/mixamorig1:Spine1/mixamorig1:Spine2/mixamorig1:RightShoulder
    m_Weight: 1
  - m_Path: mixamorig1:Hips/mixamorig1:Spine/mixamorig1:Spine1/mixamorig1:Spine2/mixamorig1:RightShoulder/mixamorig1:RightArm
    m_Weight: 1
  - m_Path: mixamorig1:Hips/mixamorig1:Spine/mixamorig1:Spine1/mixamorig1:Spine2/mixamorig1:RightShoulder/mixamorig1:RightArm/mixamorig1:RightForeArm
    m_Weight: 1
  - m_Path: mixamorig1:Hips/mixamorig1:Spine/mixamorig1:Spine1/mixamorig1:Spine2/mixamorig1:RightShoulder/mixamorig1:RightArm/mixamorig1:RightForeArm/mixamorig1:RightHand
    m_Weight: 1
  - m_Path: mixamorig1:Hips/mixamorig1:Spine/mixamorig1:Spine1/mixamorig1:Spine2/mixamorig1:RightShoulder/mixamorig1:RightArm/mixamorig1:RightForeArm/mixamorig1:RightHand/mixamorig1:RightHandIndex1
    m_Weight: 1
  - m_Path: mixamorig1:Hips/mixamorig1:Spine/mixamorig1:Spine1/mixamorig1:Spine2/mixamorig1:RightShoulder/mixamorig1:RightArm/mixamorig1:RightForeArm/mixamorig1:RightHand/mixamorig1:RightHandIndex1/mixamorig1:RightHandIndex2
    m_Weight: 1
  - m_Path: mixamorig1:Hips/mixamorig1:Spine/mixamorig1:Spine1/mixamorig1:Spine2/mixamorig1:RightShoulder/mixamorig1:RightArm/mixamorig1:RightForeArm/mixamorig1:RightHand/mixamorig1:RightHandIndex1/mixamorig1:RightHandIndex2/mixamorig1:RightHandIndex3
    m_Weight: 1
  - m_Path: mixamorig1:Hips/mixamorig1:Spine/mixamorig1:Spine1/mixamorig1:Spine2/mixamorig1:RightShoulder/mixamorig1:RightArm/mixamorig1:RightForeArm/mixamorig1:RightHand/mixamorig1:RightHandIndex1/mixamorig1:RightHandIndex2/mixamorig1:RightHandIndex3/mixamorig1:RightHandIndex4
    m_Weight: 1
  - m_Path: mixamorig1:Hips/mixamorig1:Spine/mixamorig1:Spine1/mixamorig1:Spine2/mixamorig1:RightShoulder/mixamorig1:RightArm/mixamorig1:RightForeArm/mixamorig1:RightHand/mixamorig1:RightHandMiddle1
    m_Weight: 1
  - m_Path: mixamorig1:Hips/mixamorig1:Spine/mixamorig1:Spine1/mixamorig1:Spine2/mixamorig1:RightShoulder/mixamorig1:RightArm/mixamorig1:RightForeArm/mixamorig1:RightHand/mixamorig1:RightHandMiddle1/mixamorig1:RightHandMiddle2
    m_Weight: 1
  - m_Path: mixamorig1:Hips/mixamorig1:Spine/mixamorig1:Spine1/mixamorig1:Spine2/mixamorig1:RightShoulder/mixamorig1:RightArm/mixamorig1:RightForeArm/mixamorig1:RightHand/mixamorig1:RightHandMiddle1/mixamorig1:RightHandMiddle2/mixamorig1:RightHandMiddle3
    m_Weight: 1
  - m_Path: mixamorig1:Hips/mixamorig1:Spine/mixamorig1:Spine1/mixamorig1:Spine2/mixamorig1:RightShoulder/mixamorig1:RightArm/mixamorig1:RightForeArm/mixamorig1:RightHand/mixamorig1:RightHandMiddle1/mixamorig1:RightHandMiddle2/mixamorig1:RightHandMiddle3/mixamorig1:RightHandMiddle4
    m_Weight: 1
  - m_Path: mixamorig1:Hips/mixamorig1:Spine/mixamorig1:Spine1/mixamorig1:Spine2/mixamorig1:RightShoulder/mixamorig1:RightArm/mixamorig1:RightForeArm/mixamorig1:RightHand/mixamorig1:RightHandThumb1
    m_Weight: 1
  - m_Path: mixamorig1:Hips/mixamorig1:Spine/mixamorig1:Spine1/mixamorig1:Spine2/mixamorig1:RightShoulder/mixamorig1:RightArm/mixamorig1:RightForeArm/mixamorig1:RightHand/mixamorig1:RightHandThumb1/mixamorig1:RightHandThumb2
    m_Weight: 1
  - m_Path: mixamorig1:Hips/mixamorig1:Spine/mixamorig1:Spine1/mixamorig1:Spine2/mixamorig1:RightShoulder/mixamorig1:RightArm/mixamorig1:RightForeArm/mixamorig1:RightHand/mixamorig1:RightHandThumb1/mixamorig1:RightHandThumb2/mixamorig1:RightHandThumb3
    m_Weight: 1
  - m_Path: mixamorig1:Hips/mixamorig1:Spine/mixamorig1:Spine1/mixamorig1:Spine2/mixamorig1:RightShoulder/mixamorig1:RightArm/mixamorig1:RightForeArm/mixamorig1:RightHand/mixamorig1:RightHandThumb1/mixamorig1:RightHandThumb2/mixamorig1:RightHandThumb3/mixamorig1:RightHandThumb4
    m_Weight: 1
